{
    "defaults": {},
    "inputs": [
      {
        "name": "jet1_pt",
        "offset": 0,
        "scale": 1e-2
      },
      {
        "name": "jet2_pt",
        "offset": 0,
        "scale": 1e-2
      },
      {
        "name": "jet3_pt",
        "offset": 0,
        "scale": 1e-2
      },
      {
        "name": "jet1_eta",
        "offset": 0,
        "scale": 1
      },
      {
        "name": "jet2_eta",
        "offset": 0,
        "scale": 1
      },
      {
        "name": "jet3_eta",
        "offset": 0,
        "scale": 1
      }
    ],
    "layers": [
      {
        "activation": "rectified",
        "architecture": "dense",
        "bias": [
          0.01,
          0.02,
          0.01,
          0.001,
          0.0003,
          0.5
        ],
        "weights": [
          0.001,
          0.01,
          0.1,
          0.01,
          0.02,
          0.01,
          0.1,
          0.01,
          0.03,
          0.01,
          0.01,
          0.1,
          0.01,
          0.01,
          0.01,
          0.1,
          0.04,
          0.01,
          0.01,
          0.1,
          0.01,
          0.01,
          0.1,
          0.01,
          0.01,
          0.1,
          0.01,
          0.01,
          0.01,
          0.1,
          0.05,
          0.01,
          0.01,
          0.1,
          0.6,
          0.01
        ]
      },
      {
        "architecture": "normalization",
        "bias": [
          0.2,
          0.1,
          0.2,
          0.1,
          0.2,
          0.1
        ],
        "weights": [
          3,
          4,
          5,
          4.5,
          3.2,
          6.1
        ]
      },
      {
        "activation": "softmax",
        "architecture": "dense",
        "bias": [
          0.26,
          0.1
        ],
        "weights": [
          0.01,
          0.2,
          0.03,
          0.001,
          0.002,
          0.3,
          0.01,
          0.2,
          0.03,
          0.001,
          0.002,
          0.3
        ]
      }
    ],
    "outputs": [
      "output",
      "output_other"
    ]
  }